# 3ds Max Wavefront OBJ Exporter v0.97b - (c)2007 guruware
# File Created: 20.01.2012 12:23:19

newmtl Scottish_Fold
	Ns 10.0000
	Ni 1.5000
	d 1.0000
	Tr 0.0000
	Tf 1.0000 1.0000 1.0000 
	illum 2
	Ka 1.0000 1.0000 1.0000
	Kd 1.0000 1.0000 1.0000
	Ks 0.0900 0.0900 0.0900
	Ke 0.0000 0.0000 0.0000
	map_Ka Scottish_Fold_diff.jpg
	map_Kd Scottish_Fold_diff.jpg
